.....................................
----------------------------------------------------------------------
Ran 37 tests in 0.142s

OK
Name             Stmts   Miss Branch BrPart  Cover   Missing
------------------------------------------------------------
Collatz.py          38      0     12      0   100%
TestCollatz.py     155      0      0      0   100%
------------------------------------------------------------
TOTAL              193      0     12      0   100%
